2011-11-25_01-29-23 1 TCP_MAERTS.cpu 33.0 30.25
2011-11-25_01-29-23 282 TCP_MAERTS.net 853.0 90.11
2011-11-25_01-29-23 282 TCP_STREAM.cpu 747.0 69.79
2011-11-25_01-29-23 282 TCP_STREAM.net 6055.0 65.08
2011-11-28_15-13-08 293 TCP_MAERTS.cpu 311233.0 30.78
2011-11-28_15-13-08 293 TCP_MAERTS.net 85.0 92.4733
2011-11-28_15-13-08 293 TCP_STREAM.cpu 7437.0 662.00
2011-11-28_15-13-08 293 TCP_STREAM.net 60.0 65.07
