2011-11-25_01-29-23 282 TCP_MAERTS.cpu 33.0 30.25
2011-11-25_01-29-23 282 TCP_MAERTS.net 85.0 90.11
2011-11-25_01-29-23 282 TCP_STREAM.cpu 77.0 69.79
2011-11-25_01-29-23 282 TCP_STREAM.net 60.0 65.08
2011-11-28_15-13-08 293 TCP_MAERTS.cpu 33.0 30.78
2011-11-28_15-13-08 293 TCP_MAERTS.net 85.0 92.73
2011-11-28_15-13-08 293 TCP_STREAM.cpu 77.0 66.00
2011-11-28_15-13-08 293 TCP_STREAM.net 60.0 65.07

2011-11-25_01-29-23 282 TCP_MAERTS.cpu 33.0 30.25
2011-11-25_01-29-23 282 TCP_MAERTS.net 85.0 90.11
2011-11-25_01-29-23 282 TCP_STREAM.cpu 77.0 69.79
2011-11-25_01-29-23 282 TCP_STREAM.net 60.0 65.08
2011-11-28_15-13-08 293 TCP_MAERTS.cpu 33.0 30.78
2011-11-28_15-13-08 293 TCP_MAERTS.net 85.0 92.73
2011-11-28_15-13-08 293 TCP_STREAM.cpu 77.0 66.00
2011-11-28_15-13-08 293 TCP_STREAM.net 60.0 65.07
