conformance/interfaces/aio_cancel/8-1: execution: PASS
conformance/interfaces/aio_cancel/1-1: execution: PASS
conformance/interfaces/aio_cancel/2-2: execution: PASS
conformance/interfaces/aio_cancel/5-1: execution: PASS
conformance/interfaces/aio_cancel/9-1: execution: PASS
conformance/interfaces/aio_cancel/2-1: execution: PASS
conformance/interfaces/aio_cancel/10-1: execution: PASS
conformance/interfaces/aio_error/1-1: execution: PASS
conformance/interfaces/aio_fsync/8-3: execution: PASS
conformance/interfaces/aio_fsync/8-2: execution: PASS
conformance/interfaces/aio_fsync/8-1: execution: PASS
conformance/interfaces/aio_fsync/4-1: execution: PASS
conformance/interfaces/aio_fsync/9-1: execution: PASS
conformance/interfaces/aio_fsync/12-1: execution: PASS
conformance/interfaces/aio_fsync/14-1: execution: PASS
conformance/interfaces/aio_fsync/4-2: execution: PASS
conformance/interfaces/aio_read/7-1: execution: PASS
conformance/interfaces/aio_read/3-2: execution: PASS
conformance/interfaces/aio_read/11-2: execution: PASS
conformance/interfaces/aio_read/1-1: execution: PASS
conformance/interfaces/aio_read/4-1: execution: PASS
conformance/interfaces/aio_read/11-1: execution: PASS
conformance/interfaces/aio_read/5-1: execution: PASS
conformance/interfaces/aio_read/3-1: execution: PASS
conformance/interfaces/aio_read/10-1: execution: PASS
conformance/interfaces/aio_return/1-1: execution: PASS
conformance/interfaces/aio_return/3-1: execution: PASS
conformance/interfaces/aio_suspend/7-1: execution: PASS
conformance/interfaces/aio_suspend/8-1: execution: PASS
conformance/interfaces/aio_suspend/1-1: execution: PASS
conformance/interfaces/aio_suspend/4-1: execution: PASS
conformance/interfaces/aio_suspend/6-1: execution: PASS
conformance/interfaces/aio_suspend/3-1: execution: PASS
conformance/interfaces/aio_write/8-2: execution: PASS
conformance/interfaces/aio_write/8-1: execution: PASS
conformance/interfaces/aio_write/9-2: execution: PASS
conformance/interfaces/aio_write/1-1: execution: PASS
conformance/interfaces/aio_write/1-2: execution: PASS
conformance/interfaces/aio_write/5-1: execution: PASS
conformance/interfaces/aio_write/9-1: execution: PASS
conformance/interfaces/aio_write/3-1: execution: PASS
conformance/interfaces/aio_write/2-1: execution: PASS
conformance/interfaces/lio_listio/7-1: execution: PASS
conformance/interfaces/lio_listio/13-1: execution: PASS
conformance/interfaces/lio_listio/8-1: execution: PASS
conformance/interfaces/lio_listio/18-1: execution: PASS
conformance/interfaces/lio_listio/1-1: execution: PASS
conformance/interfaces/lio_listio/4-1: execution: PASS
conformance/interfaces/lio_listio/5-1: execution: PASS
conformance/interfaces/lio_listio/15-1: execution: PASS
conformance/interfaces/lio_listio/9-1: execution: PASS
conformance/interfaces/lio_listio/12-1: execution: PASS
conformance/interfaces/lio_listio/14-1: execution: PASS
conformance/interfaces/lio_listio/6-1: execution: PASS
conformance/interfaces/lio_listio/3-1: execution: PASS
conformance/interfaces/lio_listio/10-1: execution: PASS
conformance/interfaces/mlock/7-1: execution: PASS
conformance/interfaces/mlock/8-1: execution: PASS
conformance/interfaces/mlock/5-1: execution: PASS
conformance/interfaces/mlock/12-1: execution: PASS
conformance/interfaces/mlock/4-1: execution: PASS
conformance/interfaces/mlock/2-1: execution: PASS
conformance/interfaces/mlock/10-1: execution: PASS
conformance/interfaces/mlock/speculative/12-1: execution: PASS
conformance/interfaces/mlockall/7-1: execution: PASS
conformance/interfaces/mlockall/13-1: execution: PASS
conformance/interfaces/mlockall/8-1: execution: PASS
conformance/interfaces/mlockall/9-1: execution: PASS
conformance/interfaces/mlockall/3-6: execution: PASS
conformance/interfaces/mlockall/15-1: execution: PASS
conformance/interfaces/mlockall/3-7: execution: PASS
conformance/interfaces/mlockall/13-2: execution: PASS
conformance/interfaces/mlockall/2-1: execution: PASS
conformance/interfaces/mlockall/speculative/15-1: execution: PASS
conformance/interfaces/munlock/7-1: execution: PASS
conformance/interfaces/munlock/9-1: execution: PASS
conformance/interfaces/munlock/11-1: execution: PASS
conformance/interfaces/munlock/2-1: execution: PASS
conformance/interfaces/munlock/10-1: execution: PASS
conformance/interfaces/munlockall/5-1: execution: PASS
conformance/interfaces/munlockall/6-1: execution: PASS
conformance/interfaces/mmap/6-3: execution: PASS
conformance/interfaces/mmap/7-1: execution: PASS
conformance/interfaces/mmap/19-1: execution: PASS
conformance/interfaces/mmap/6-2: execution: PASS
conformance/interfaces/mmap/7-2: execution: PASS
conformance/interfaces/mmap/11-2: execution: PASS
conformance/interfaces/mmap/11-3: execution: PASS
conformance/interfaces/mmap/13-1: execution: PASS
conformance/interfaces/mmap/21-1: execution: PASS
conformance/interfaces/mmap/18-1: execution: PASS
conformance/interfaces/mmap/24-1: execution: PASS
conformance/interfaces/mmap/23-1: execution: PASS
conformance/interfaces/mmap/1-1: execution: PASS
conformance/interfaces/mmap/1-2: execution: PASS
conformance/interfaces/mmap/11-1: execution: PASS
conformance/interfaces/mmap/5-1: execution: PASS
conformance/interfaces/mmap/16-1: execution: PASS
conformance/interfaces/mmap/6-4: execution: PASS
conformance/interfaces/mmap/7-4: execution: PASS
conformance/interfaces/mmap/9-1: execution: PASS
conformance/interfaces/mmap/17-1: execution: PASS
conformance/interfaces/mmap/24-2: execution: PASS
conformance/interfaces/mmap/6-5: execution: PASS
conformance/interfaces/mmap/12-1: execution: PASS
conformance/interfaces/mmap/20-1: execution: PASS
conformance/interfaces/mmap/14-1: execution: PASS
conformance/interfaces/mmap/6-6: execution: PASS
conformance/interfaces/mmap/6-1: execution: PASS
conformance/interfaces/mmap/3-1: execution: PASS
conformance/interfaces/mmap/7-3: execution: PASS
conformance/interfaces/mmap/10-1: execution: PASS
conformance/interfaces/munmap/7-1: execution: PASS
conformance/interfaces/munmap/8-1: execution: PASS
conformance/interfaces/munmap/1-1: execution: PASS
conformance/interfaces/munmap/1-2: execution: PASS
conformance/interfaces/munmap/4-1: execution: PASS
conformance/interfaces/munmap/9-1: execution: PASS
conformance/interfaces/munmap/10-1: execution: PASS
conformance/interfaces/munmap/3-1: execution: PASS
conformance/interfaces/munmap/2-1: execution: PASS
conformance/interfaces/shm_open/39-2: execution: PASS
conformance/interfaces/shm_open/14-2: execution: PASS
conformance/interfaces/shm_open/20-1: execution: PASS
conformance/interfaces/shm_open/30-1: execution: PASS
conformance/interfaces/shm_open/28-1: execution: PASS
conformance/interfaces/shm_open/38-1: execution: PASS
conformance/interfaces/shm_open/28-2: execution: PASS
conformance/interfaces/shm_open/35-1: execution: PASS
conformance/interfaces/shm_open/13-1: execution: PASS
conformance/interfaces/shm_open/8-1: execution: PASS
conformance/interfaces/shm_open/41-1: execution: PASS
conformance/interfaces/shm_open/21-1: execution: PASS
conformance/interfaces/shm_open/39-1: execution: PASS
conformance/interfaces/shm_open/18-1: execution: PASS
conformance/interfaces/shm_open/20-3: execution: PASS
conformance/interfaces/shm_open/25-1: execution: PASS
conformance/interfaces/shm_open/1-1: execution: PASS
conformance/interfaces/shm_open/20-2: execution: PASS
conformance/interfaces/shm_open/11-1: execution: PASS
conformance/interfaces/shm_open/5-1: execution: PASS
conformance/interfaces/shm_open/28-3: execution: PASS
conformance/interfaces/shm_open/15-1: execution: PASS
conformance/interfaces/shm_open/26-2: execution: PASS
conformance/interfaces/shm_open/37-1: execution: PASS
conformance/interfaces/shm_open/34-1: execution: PASS
conformance/interfaces/shm_open/17-1: execution: PASS
conformance/interfaces/shm_open/16-1: execution: PASS
conformance/interfaces/shm_open/26-1: execution: PASS
conformance/interfaces/shm_open/31-1: execution: PASS
conformance/interfaces/shm_open/22-1: execution: PASS
conformance/interfaces/shm_open/13-2: execution: PASS
conformance/interfaces/shm_open/4-1: execution: PASS
conformance/interfaces/shm_open/32-1: execution: PASS
conformance/interfaces/shm_open/14-1: execution: PASS
conformance/interfaces/shm_unlink/7-1: execution: PASS
conformance/interfaces/shm_unlink/8-1: execution: PASS
conformance/interfaces/shm_unlink/1-1: execution: PASS
conformance/interfaces/shm_unlink/11-1: execution: PASS
conformance/interfaces/shm_unlink/5-1: execution: PASS
conformance/interfaces/shm_unlink/9-1: execution: PASS
conformance/interfaces/shm_unlink/10-2: execution: PASS
conformance/interfaces/shm_unlink/6-1: execution: PASS
conformance/interfaces/shm_unlink/4-1: execution: PASS
conformance/interfaces/shm_unlink/3-1: execution: PASS
conformance/interfaces/shm_unlink/2-1: execution: PASS
conformance/interfaces/shm_unlink/10-1: execution: PASS
conformance/interfaces/mq_close/3-2: execution: PASS
conformance/interfaces/mq_close/1-1: execution: PASS
conformance/interfaces/mq_close/3-3: execution: PASS
conformance/interfaces/mq_close/4-1: execution: PASS
conformance/interfaces/mq_close/3-1: execution: PASS
conformance/interfaces/mq_close/2-1: execution: PASS
conformance/interfaces/mq_getattr/2-2: execution: PASS
conformance/interfaces/mq_getattr/4-1: execution: PASS
conformance/interfaces/mq_getattr/5-1: execution: PASS
conformance/interfaces/mq_getattr/1-1: execution: PASS
conformance/interfaces/mq_getattr/6-1: execution: PASS
conformance/interfaces/mq_getattr/3-1: execution: PASS
conformance/interfaces/mq_getattr/2-1: execution: PASS
conformance/interfaces/mq_getattr/speculative/7-1: execution: PASS
conformance/interfaces/mq_notify/7-1: execution: PASS
conformance/interfaces/mq_notify/8-1: execution: PASS
conformance/interfaces/mq_notify/1-1: execution: PASS
conformance/interfaces/mq_notify/4-1: execution: PASS
conformance/interfaces/mq_notify/5-1: execution: PASS
conformance/interfaces/mq_notify/9-1: execution: PASS
conformance/interfaces/mq_notify/6-1: execution: PASS
conformance/interfaces/mq_notify/3-1: execution: PASS
conformance/interfaces/mq_notify/2-1: execution: PASS
conformance/interfaces/mq_open/20-1: execution: PASS
conformance/interfaces/mq_open/7-1: execution: PASS
conformance/interfaces/mq_open/29-1: execution: PASS
conformance/interfaces/mq_open/19-1: execution: PASS
conformance/interfaces/mq_open/7-2: execution: PASS
conformance/interfaces/mq_open/8-2: execution: PASS
conformance/interfaces/mq_open/13-1: execution: PASS
conformance/interfaces/mq_open/8-1: execution: PASS
conformance/interfaces/mq_open/21-1: execution: PASS
conformance/interfaces/mq_open/18-1: execution: PASS
conformance/interfaces/mq_open/9-2: execution: PASS
conformance/interfaces/mq_open/23-1: execution: PASS
conformance/interfaces/mq_open/1-1: execution: PASS
conformance/interfaces/mq_open/11-1: execution: PASS
conformance/interfaces/mq_open/25-2: execution: PASS
conformance/interfaces/mq_open/15-1: execution: PASS
conformance/interfaces/mq_open/9-1: execution: PASS
conformance/interfaces/mq_open/16-1: execution: PASS
conformance/interfaces/mq_open/12-1: execution: PASS
conformance/interfaces/mq_open/27-2: execution: PASS
conformance/interfaces/mq_open/27-1: execution: PASS
conformance/interfaces/mq_open/3-1: execution: PASS
conformance/interfaces/mq_open/7-3: execution: PASS
conformance/interfaces/mq_open/2-1: execution: PASS
conformance/interfaces/mq_open/speculative/2-2: execution: PASS
conformance/interfaces/mq_open/speculative/26-1: execution: PASS
conformance/interfaces/mq_open/speculative/6-1: execution: PASS
conformance/interfaces/mq_open/speculative/2-3: execution: PASS
conformance/interfaces/mq_receive/7-1: execution: PASS
conformance/interfaces/mq_receive/11-2: execution: PASS
conformance/interfaces/mq_receive/13-1: execution: PASS
conformance/interfaces/mq_receive/8-1: execution: PASS
conformance/interfaces/mq_receive/1-1: execution: PASS
conformance/interfaces/mq_receive/9-1: execution: PASS
conformance/interfaces/mq_receive/11-1: execution: PASS
conformance/interfaces/mq_receive/5-1: execution: PASS
conformance/interfaces/mq_receive/12-1: execution: PASS
conformance/interfaces/mq_receive/4-1: execution: PASS
conformance/interfaces/mq_receive/2-1: execution: PASS
conformance/interfaces/mq_receive/10-1: execution: PASS
conformance/interfaces/mq_send/7-1: execution: PASS
conformance/interfaces/mq_send/5-2: execution: PASS
conformance/interfaces/mq_send/3-2: execution: PASS
conformance/interfaces/mq_send/11-2: execution: PASS
conformance/interfaces/mq_send/13-1: execution: PASS
conformance/interfaces/mq_send/8-1: execution: PASS
conformance/interfaces/mq_send/1-1: execution: PASS
conformance/interfaces/mq_send/4-1: execution: PASS
conformance/interfaces/mq_send/11-1: execution: PASS
conformance/interfaces/mq_send/5-1: execution: PASS
conformance/interfaces/mq_send/9-1: execution: PASS
conformance/interfaces/mq_send/4-3: execution: PASS
conformance/interfaces/mq_send/12-1: execution: PASS
conformance/interfaces/mq_send/14-1: execution: PASS
conformance/interfaces/mq_send/3-1: execution: PASS
conformance/interfaces/mq_send/2-1: execution: PASS
conformance/interfaces/mq_send/4-2: execution: PASS
conformance/interfaces/mq_send/10-1: execution: PASS
conformance/interfaces/mq_setattr/3-1: execution: PASS
conformance/interfaces/mq_setattr/1-1: execution: PASS
conformance/interfaces/mq_setattr/1-2: execution: PASS
conformance/interfaces/mq_setattr/5-1: execution: PASS
conformance/interfaces/mq_setattr/4-1: execution: PASS
conformance/interfaces/mq_setattr/2-1: execution: PASS
conformance/interfaces/mq_timedreceive/7-1: execution: PASS
conformance/interfaces/mq_timedreceive/5-2: execution: PASS
conformance/interfaces/mq_timedreceive/13-1: execution: PASS
conformance/interfaces/mq_timedreceive/8-1: execution: PASS
conformance/interfaces/mq_timedreceive/18-1: execution: PASS
conformance/interfaces/mq_timedreceive/12-1: execution: PASS
conformance/interfaces/mq_timedreceive/1-1: execution: PASS
conformance/interfaces/mq_timedreceive/11-1: execution: PASS
conformance/interfaces/mq_timedreceive/5-1: execution: PASS
conformance/interfaces/mq_timedreceive/16-1: execution: PASS
conformance/interfaces/mq_timedreceive/15-1: execution: PASS
conformance/interfaces/mq_timedreceive/17-2: execution: PASS
conformance/interfaces/mq_timedreceive/17-1: execution: PASS
conformance/interfaces/mq_timedreceive/18-2: execution: PASS
conformance/interfaces/mq_timedreceive/14-1: execution: PASS
conformance/interfaces/mq_timedreceive/17-3: execution: PASS
conformance/interfaces/mq_timedreceive/4-1: execution: PASS
conformance/interfaces/mq_timedreceive/2-1: execution: PASS
conformance/interfaces/mq_timedreceive/10-1: execution: PASS
conformance/interfaces/mq_timedreceive/speculative/10-2: execution: PASS
conformance/interfaces/mq_timedsend/20-1: execution: PASS
conformance/interfaces/mq_timedsend/7-1: execution: PASS
conformance/interfaces/mq_timedsend/19-1: execution: PASS
conformance/interfaces/mq_timedsend/5-2: execution: PASS
conformance/interfaces/mq_timedsend/3-2: execution: PASS
conformance/interfaces/mq_timedsend/11-2: execution: PASS
conformance/interfaces/mq_timedsend/13-1: execution: PASS
conformance/interfaces/mq_timedsend/8-1: execution: PASS
conformance/interfaces/mq_timedsend/18-1: execution: PASS
conformance/interfaces/mq_timedsend/5-3: execution: PASS
conformance/interfaces/mq_timedsend/1-1: execution: PASS
conformance/interfaces/mq_timedsend/4-1: execution: PASS
conformance/interfaces/mq_timedsend/11-1: execution: PASS
conformance/interfaces/mq_timedsend/5-1: execution: PASS
conformance/interfaces/mq_timedsend/15-1: execution: PASS
conformance/interfaces/mq_timedsend/9-1: execution: PASS
conformance/interfaces/mq_timedsend/4-3: execution: PASS
conformance/interfaces/mq_timedsend/16-1: execution: PASS
conformance/interfaces/mq_timedsend/14-1: execution: PASS
conformance/interfaces/mq_timedsend/3-1: execution: PASS
conformance/interfaces/mq_timedsend/2-1: execution: PASS
conformance/interfaces/mq_timedsend/4-2: execution: PASS
conformance/interfaces/mq_timedsend/10-1: execution: PASS
conformance/interfaces/mq_timedsend/speculative/18-2: execution: PASS
conformance/interfaces/mq_unlink/7-1: execution: PASS
conformance/interfaces/mq_unlink/3-1: execution: PASS
conformance/interfaces/mq_unlink/1-1: execution: PASS
conformance/interfaces/mq_unlink/2-2: execution: PASS
conformance/interfaces/mq_unlink/4-1: execution: PASS
conformance/interfaces/mq_unlink/2-1: execution: PASS
conformance/interfaces/mq_unlink/speculative/7-2: execution: PASS
conformance/interfaces/sem_close/3-2: execution: PASS
conformance/interfaces/sem_close/1-1: execution: PASS
conformance/interfaces/sem_close/3-1: execution: PASS
conformance/interfaces/sem_close/2-1: execution: PASS
conformance/interfaces/sem_destroy/4-1: execution: PASS
conformance/interfaces/sem_destroy/3-1: execution: PASS
conformance/interfaces/sem_getvalue/1-1: execution: PASS
conformance/interfaces/sem_getvalue/2-2: execution: PASS
conformance/interfaces/sem_getvalue/4-1: execution: PASS
conformance/interfaces/sem_getvalue/5-1: execution: PASS
conformance/interfaces/sem_getvalue/2-1: execution: PASS
conformance/interfaces/sem_init/5-2: execution: PASS
conformance/interfaces/sem_init/3-2: execution: PASS
conformance/interfaces/sem_init/1-1: execution: PASS
conformance/interfaces/sem_init/2-2: execution: PASS
conformance/interfaces/sem_init/3-3: execution: PASS
conformance/interfaces/sem_init/5-1: execution: PASS
conformance/interfaces/sem_init/6-1: execution: PASS
conformance/interfaces/sem_init/3-1: execution: PASS
conformance/interfaces/sem_init/2-1: execution: PASS
conformance/interfaces/sem_open/1-3: execution: PASS
conformance/interfaces/sem_open/1-1: execution: PASS
conformance/interfaces/sem_open/1-2: execution: PASS
conformance/interfaces/sem_open/2-2: execution: PASS
conformance/interfaces/sem_open/4-1: execution: PASS
conformance/interfaces/sem_open/5-1: execution: PASS
conformance/interfaces/sem_open/15-1: execution: PASS
conformance/interfaces/sem_open/1-4: execution: PASS
conformance/interfaces/sem_open/6-1: execution: PASS
conformance/interfaces/sem_open/3-1: execution: PASS
conformance/interfaces/sem_open/2-1: execution: PASS
conformance/interfaces/sem_open/10-1: execution: PASS
conformance/interfaces/sem_post/8-1: execution: PASS
conformance/interfaces/sem_post/1-1: execution: PASS
conformance/interfaces/sem_post/1-2: execution: PASS
conformance/interfaces/sem_post/4-1: execution: PASS
conformance/interfaces/sem_post/5-1: execution: PASS
conformance/interfaces/sem_post/6-1: execution: PASS
conformance/interfaces/sem_post/2-1: execution: PASS
conformance/interfaces/sem_timedwait/7-1: execution: PASS
conformance/interfaces/sem_timedwait/6-2: execution: PASS
conformance/interfaces/sem_timedwait/1-1: execution: PASS
conformance/interfaces/sem_timedwait/2-2: execution: PASS
conformance/interfaces/sem_timedwait/4-1: execution: PASS
conformance/interfaces/sem_timedwait/11-1: execution: PASS
conformance/interfaces/sem_timedwait/9-1: execution: PASS
conformance/interfaces/sem_timedwait/6-1: execution: PASS
conformance/interfaces/sem_timedwait/3-1: execution: PASS
conformance/interfaces/sem_timedwait/2-1: execution: PASS
conformance/interfaces/sem_timedwait/10-1: execution: PASS
conformance/interfaces/sem_unlink/7-1: execution: PASS
conformance/interfaces/sem_unlink/1-1: execution: PASS
conformance/interfaces/sem_unlink/2-2: execution: PASS
conformance/interfaces/sem_unlink/4-1: execution: PASS
conformance/interfaces/sem_unlink/5-1: execution: PASS
conformance/interfaces/sem_unlink/9-1: execution: PASS
conformance/interfaces/sem_unlink/6-1: execution: PASS
conformance/interfaces/sem_unlink/3-1: execution: PASS
conformance/interfaces/sem_unlink/2-1: execution: PASS
conformance/interfaces/sem_unlink/4-2: execution: PASS
conformance/interfaces/sem_wait/7-1: execution: PASS
conformance/interfaces/sem_wait/13-1: execution: PASS
conformance/interfaces/sem_wait/1-1: execution: PASS
conformance/interfaces/sem_wait/1-2: execution: PASS
conformance/interfaces/sem_wait/11-1: execution: PASS
conformance/interfaces/sem_wait/5-1: execution: PASS
conformance/interfaces/sem_wait/12-1: execution: PASS
conformance/interfaces/sem_wait/3-1: execution: PASS
conformance/interfaces/sigaction/23-2: execution: PASS
conformance/interfaces/sigaction/12-10: execution: PASS
conformance/interfaces/sigaction/17-16: execution: PASS
conformance/interfaces/sigaction/28-16: execution: PASS
conformance/interfaces/sigaction/22-4: execution: PASS
conformance/interfaces/sigaction/28-22: execution: PASS
conformance/interfaces/sigaction/25-8: execution: PASS
conformance/interfaces/sigaction/1-19: execution: PASS
conformance/interfaces/sigaction/28-5: execution: PASS
conformance/interfaces/sigaction/3-9: execution: PASS
conformance/interfaces/sigaction/28-17: execution: PASS
conformance/interfaces/sigaction/18-11: execution: PASS
conformance/interfaces/sigaction/12-30: execution: PASS
conformance/interfaces/sigaction/23-3: execution: PASS
conformance/interfaces/sigaction/1-13: execution: PASS
conformance/interfaces/sigaction/3-24: execution: PASS
conformance/interfaces/sigaction/13-8: execution: PASS
conformance/interfaces/sigaction/22-2: execution: PASS
conformance/interfaces/sigaction/4-31: execution: PASS
conformance/interfaces/sigaction/4-12: execution: PASS
conformance/interfaces/sigaction/6-9: execution: PASS
conformance/interfaces/sigaction/12-14: execution: PASS
conformance/interfaces/sigaction/8-14: execution: PASS
conformance/interfaces/sigaction/12-52: execution: PASS
conformance/interfaces/sigaction/8-3: execution: PASS
conformance/interfaces/sigaction/12-50: execution: PASS
conformance/interfaces/sigaction/22-13: execution: PASS
conformance/interfaces/sigaction/1-26: execution: PASS
conformance/interfaces/sigaction/6-23: execution: PASS
conformance/interfaces/sigaction/13-24: execution: PASS
conformance/interfaces/sigaction/4-36: execution: PASS
conformance/interfaces/sigaction/4-16: execution: PASS
conformance/interfaces/sigaction/13-14: execution: PASS
conformance/interfaces/sigaction/28-25: execution: PASS
conformance/interfaces/sigaction/6-16: execution: PASS
conformance/interfaces/sigaction/19-14: execution: PASS
conformance/interfaces/sigaction/22-3: execution: PASS
conformance/interfaces/sigaction/17-24: execution: PASS
conformance/interfaces/sigaction/4-74: execution: PASS
conformance/interfaces/sigaction/19-3: execution: PASS
conformance/interfaces/sigaction/3-16: execution: PASS
conformance/interfaces/sigaction/12-19: execution: PASS
conformance/interfaces/sigaction/6-24: execution: PASS
conformance/interfaces/sigaction/1-6: execution: PASS
conformance/interfaces/sigaction/6-13: execution: PASS
conformance/interfaces/sigaction/8-24: execution: PASS
conformance/interfaces/sigaction/6-3: execution: PASS
conformance/interfaces/sigaction/22-15: execution: PASS
conformance/interfaces/sigaction/4-90: execution: PASS
conformance/interfaces/sigaction/4-93: execution: PASS
conformance/interfaces/sigaction/28-13: execution: PASS
conformance/interfaces/sigaction/1-3: execution: PASS
conformance/interfaces/sigaction/12-23: execution: PASS
conformance/interfaces/sigaction/12-5: execution: PASS
conformance/interfaces/sigaction/8-7: execution: PASS
conformance/interfaces/sigaction/8-12: execution: PASS
conformance/interfaces/sigaction/28-20: execution: PASS
conformance/interfaces/sigaction/28-6: execution: PASS
conformance/interfaces/sigaction/12-45: execution: PASS
conformance/interfaces/sigaction/23-23: execution: PASS
conformance/interfaces/sigaction/28-1: execution: PASS
conformance/interfaces/sigaction/29-1: execution: PASS
conformance/interfaces/sigaction/28-10: execution: PASS
conformance/interfaces/sigaction/4-8: execution: PASS
conformance/interfaces/sigaction/19-1: execution: PASS
conformance/interfaces/sigaction/18-7: execution: PASS
conformance/interfaces/sigaction/8-23: execution: PASS
conformance/interfaces/sigaction/17-9: execution: PASS
conformance/interfaces/sigaction/22-20: execution: PASS
conformance/interfaces/sigaction/28-2: execution: PASS
conformance/interfaces/sigaction/18-8: execution: PASS
conformance/interfaces/sigaction/3-22: execution: PASS
conformance/interfaces/sigaction/4-69: execution: PASS
conformance/interfaces/sigaction/6-2: execution: PASS
conformance/interfaces/sigaction/18-16: execution: PASS
conformance/interfaces/sigaction/6-15: execution: PASS
conformance/interfaces/sigaction/4-52: execution: PASS
conformance/interfaces/sigaction/13-3: execution: PASS
conformance/interfaces/sigaction/3-2: execution: PASS
conformance/interfaces/sigaction/30-1: execution: PASS
conformance/interfaces/sigaction/19-7: execution: PASS
conformance/interfaces/sigaction/25-20: execution: PASS
conformance/interfaces/sigaction/3-8: execution: PASS
conformance/interfaces/sigaction/17-10: execution: PASS
conformance/interfaces/sigaction/8-20: execution: PASS
conformance/interfaces/sigaction/8-2: execution: PASS
conformance/interfaces/sigaction/28-24: execution: PASS
conformance/interfaces/sigaction/13-12: execution: PASS
conformance/interfaces/sigaction/4-72: execution: PASS
conformance/interfaces/sigaction/2-8: execution: PASS
conformance/interfaces/sigaction/19-5: execution: PASS
conformance/interfaces/sigaction/23-4: execution: PASS
conformance/interfaces/sigaction/4-54: execution: PASS
conformance/interfaces/sigaction/1-23: execution: PASS
conformance/interfaces/sigaction/13-22: execution: PASS
conformance/interfaces/sigaction/19-10: execution: PASS
conformance/interfaces/sigaction/12-34: execution: PASS
conformance/interfaces/sigaction/1-20: execution: PASS
conformance/interfaces/sigaction/4-20: execution: PASS
conformance/interfaces/sigaction/18-20: execution: PASS
conformance/interfaces/sigaction/17-12: execution: PASS
conformance/interfaces/sigaction/17-19: execution: PASS
conformance/interfaces/sigaction/25-15: execution: PASS
conformance/interfaces/sigaction/3-13: execution: PASS
conformance/interfaces/sigaction/8-9: execution: PASS
conformance/interfaces/sigaction/4-4: execution: PASS
conformance/interfaces/sigaction/19-4: execution: PASS
conformance/interfaces/sigaction/4-14: execution: PASS
conformance/interfaces/sigaction/13-16: execution: PASS
conformance/interfaces/sigaction/8-11: execution: PASS
conformance/interfaces/sigaction/19-6: execution: PASS
conformance/interfaces/sigaction/13-1: execution: PASS
conformance/interfaces/sigaction/8-13: execution: PASS
conformance/interfaces/sigaction/8-1: execution: PASS
conformance/interfaces/sigaction/4-77: execution: PASS
conformance/interfaces/sigaction/23-24: execution: PASS
conformance/interfaces/sigaction/13-10: execution: PASS
conformance/interfaces/sigaction/3-4: execution: PASS
conformance/interfaces/sigaction/3-20: execution: PASS
conformance/interfaces/sigaction/12-17: execution: PASS
conformance/interfaces/sigaction/22-16: execution: PASS
conformance/interfaces/sigaction/28-11: execution: PASS
conformance/interfaces/sigaction/18-3: execution: PASS
conformance/interfaces/sigaction/19-20: execution: PASS
conformance/interfaces/sigaction/22-8: execution: PASS
conformance/interfaces/sigaction/3-12: execution: PASS
conformance/interfaces/sigaction/25-11: execution: PASS
conformance/interfaces/sigaction/25-12: execution: PASS
conformance/interfaces/sigaction/21-1: execution: PASS
conformance/interfaces/sigaction/18-1: execution: PASS
conformance/interfaces/sigaction/22-24: execution: PASS
conformance/interfaces/sigaction/12-35: execution: PASS
conformance/interfaces/sigaction/3-14: execution: PASS
conformance/interfaces/sigaction/17-4: execution: PASS
conformance/interfaces/sigaction/12-42: execution: PASS
conformance/interfaces/sigaction/1-14: execution: PASS
conformance/interfaces/sigaction/8-15: execution: PASS
conformance/interfaces/sigaction/12-4: execution: PASS
conformance/interfaces/sigaction/28-26: execution: PASS
conformance/interfaces/sigaction/1-5: execution: PASS
conformance/interfaces/sigaction/19-16: execution: PASS
conformance/interfaces/sigaction/3-10: execution: PASS
conformance/interfaces/sigaction/4-53: execution: PASS
conformance/interfaces/sigaction/18-4: execution: PASS
conformance/interfaces/sigaction/4-99: execution: PASS
conformance/interfaces/sigaction/4-6: execution: PASS
conformance/interfaces/sigaction/25-25: execution: PASS
conformance/interfaces/sigaction/22-7: execution: PASS
conformance/interfaces/sigaction/3-23: execution: PASS
conformance/interfaces/sigaction/4-62: execution: PASS
conformance/interfaces/sigaction/22-14: execution: PASS
conformance/interfaces/sigaction/4-23: execution: PASS
conformance/interfaces/sigaction/25-16: execution: PASS
conformance/interfaces/sigaction/25-6: execution: PASS
conformance/interfaces/sigaction/4-11: execution: PASS
conformance/interfaces/sigaction/1-7: execution: PASS
conformance/interfaces/sigaction/2-21: execution: PASS
conformance/interfaces/sigaction/18-5: execution: PASS
conformance/interfaces/sigaction/22-21: execution: PASS
conformance/interfaces/sigaction/13-20: execution: PASS
conformance/interfaces/sigaction/25-1: execution: PASS
conformance/interfaces/sigaction/18-21: execution: PASS
conformance/interfaces/sigaction/17-20: execution: PASS
conformance/interfaces/sigaction/1-18: execution: PASS
conformance/interfaces/sigaction/25-14: execution: PASS
conformance/interfaces/sigaction/12-16: execution: PASS
conformance/interfaces/sigaction/23-1: execution: PASS
conformance/interfaces/sigaction/4-13: execution: PASS
conformance/interfaces/sigaction/17-21: execution: PASS
conformance/interfaces/sigaction/19-23: execution: PASS
conformance/interfaces/sigaction/4-43: execution: PASS
conformance/interfaces/sigaction/8-21: execution: PASS
conformance/interfaces/sigaction/4-67: execution: PASS
conformance/interfaces/sigaction/4-34: execution: PASS
conformance/interfaces/sigaction/13-4: execution: PASS
conformance/interfaces/sigaction/4-28: execution: PASS
conformance/interfaces/sigaction/2-11: execution: PASS
conformance/interfaces/sigaction/19-2: execution: PASS
conformance/interfaces/sigaction/4-5: execution: PASS
conformance/interfaces/sigaction/19-11: execution: PASS
conformance/interfaces/sigaction/25-17: execution: PASS
conformance/interfaces/sigaction/12-8: execution: PASS
conformance/interfaces/sigaction/1-1: execution: PASS
conformance/interfaces/sigaction/22-11: execution: PASS
conformance/interfaces/sigaction/18-15: execution: PASS
conformance/interfaces/sigaction/4-63: execution: PASS
conformance/interfaces/sigaction/8-18: execution: PASS
conformance/interfaces/sigaction/2-17: execution: PASS
conformance/interfaces/sigaction/4-75: execution: PASS
conformance/interfaces/sigaction/4-29: execution: PASS
conformance/interfaces/sigaction/1-2: execution: PASS
conformance/interfaces/sigaction/18-24: execution: PASS
conformance/interfaces/sigaction/28-21: execution: PASS
conformance/interfaces/sigaction/18-12: execution: PASS
conformance/interfaces/sigaction/2-2: execution: PASS
conformance/interfaces/sigaction/4-26: execution: PASS
conformance/interfaces/sigaction/23-9: execution: PASS
conformance/interfaces/sigaction/22-18: execution: PASS
conformance/interfaces/sigaction/3-3: execution: PASS
conformance/interfaces/sigaction/12-15: execution: PASS
conformance/interfaces/sigaction/4-55: execution: PASS
conformance/interfaces/sigaction/4-1: execution: PASS
conformance/interfaces/sigaction/12-40: execution: PASS
conformance/interfaces/sigaction/4-19: execution: PASS
conformance/interfaces/sigaction/11-1: execution: PASS
conformance/interfaces/sigaction/17-17: execution: PASS
conformance/interfaces/sigaction/4-10: execution: PASS
conformance/interfaces/sigaction/4-80: execution: PASS
conformance/interfaces/sigaction/23-22: execution: PASS
conformance/interfaces/sigaction/17-22: execution: PASS
conformance/interfaces/sigaction/28-7: execution: PASS
conformance/interfaces/sigaction/4-73: execution: PASS
conformance/interfaces/sigaction/6-4: execution: PASS
conformance/interfaces/sigaction/25-23: execution: PASS
conformance/interfaces/sigaction/17-23: execution: PASS
conformance/interfaces/sigaction/2-6: execution: PASS
conformance/interfaces/sigaction/6-17: execution: PASS
conformance/interfaces/sigaction/2-24: execution: PASS
conformance/interfaces/sigaction/25-26: execution: PASS
conformance/interfaces/sigaction/4-95: execution: PASS
conformance/interfaces/sigaction/8-6: execution: PASS
conformance/interfaces/sigaction/1-22: execution: PASS
conformance/interfaces/sigaction/8-4: execution: PASS
conformance/interfaces/sigaction/4-38: execution: PASS
conformance/interfaces/sigaction/25-22: execution: PASS
conformance/interfaces/sigaction/25-2: execution: PASS
conformance/interfaces/sigaction/1-25: execution: PASS
conformance/interfaces/sigaction/6-7: execution: PASS
conformance/interfaces/sigaction/4-57: execution: PASS
conformance/interfaces/sigaction/25-18: execution: PASS
conformance/interfaces/sigaction/8-10: execution: PASS
conformance/interfaces/sigaction/22-25: execution: PASS
conformance/interfaces/sigaction/3-25: execution: PASS
conformance/interfaces/sigaction/12-36: execution: PASS
conformance/interfaces/sigaction/2-5: execution: PASS
conformance/interfaces/sigaction/25-3: execution: PASS
conformance/interfaces/sigaction/12-38: execution: PASS
conformance/interfaces/sigaction/22-6: execution: PASS
conformance/interfaces/sigaction/18-19: execution: PASS
conformance/interfaces/sigaction/4-44: execution: PASS
conformance/interfaces/sigaction/22-22: execution: PASS
conformance/interfaces/sigaction/6-18: execution: PASS
conformance/interfaces/sigaction/12-32: execution: PASS
conformance/interfaces/sigaction/6-11: execution: PASS
conformance/interfaces/sigaction/12-44: execution: PASS
conformance/interfaces/sigaction/3-6: execution: PASS
conformance/interfaces/sigaction/4-71: execution: PASS
conformance/interfaces/sigaction/2-14: execution: PASS
conformance/interfaces/sigaction/4-42: execution: PASS
conformance/interfaces/sigaction/28-3: execution: PASS
conformance/interfaces/sigaction/1-8: execution: PASS
conformance/interfaces/sigaction/12-21: execution: PASS
conformance/interfaces/sigaction/18-23: execution: PASS
conformance/interfaces/sigaction/4-96: execution: PASS
conformance/interfaces/sigaction/12-24: execution: PASS
conformance/interfaces/sigaction/6-21: execution: PASS
conformance/interfaces/sigaction/4-87: execution: PASS
conformance/interfaces/sigaction/19-24: execution: PASS
conformance/interfaces/sigaction/25-7: execution: PASS
conformance/interfaces/sigaction/9-1: execution: PASS
conformance/interfaces/sigaction/17-15: execution: PASS
conformance/interfaces/sigaction/12-47: execution: PASS
conformance/interfaces/sigaction/4-45: execution: PASS
conformance/interfaces/sigaction/6-20: execution: PASS
conformance/interfaces/sigaction/4-17: execution: PASS
conformance/interfaces/sigaction/4-51: execution: PASS
conformance/interfaces/sigaction/23-14: execution: PASS
conformance/interfaces/sigaction/23-11: execution: PASS
conformance/interfaces/sigaction/12-31: execution: PASS
conformance/interfaces/sigaction/19-25: execution: PASS
conformance/interfaces/sigaction/4-7: execution: PASS
conformance/interfaces/sigaction/23-5: execution: PASS
conformance/interfaces/sigaction/12-33: execution: PASS
conformance/interfaces/sigaction/23-13: execution: PASS
conformance/interfaces/sigaction/12-43: execution: PASS
conformance/interfaces/sigaction/6-22: execution: PASS
conformance/interfaces/sigaction/4-68: execution: PASS
conformance/interfaces/sigaction/4-89: execution: PASS
conformance/interfaces/sigaction/3-15: execution: PASS
conformance/interfaces/sigaction/12-6: execution: PASS
conformance/interfaces/sigaction/4-56: execution: PASS
conformance/interfaces/sigaction/4-85: execution: PASS
conformance/interfaces/sigaction/4-92: execution: PASS
conformance/interfaces/sigaction/1-12: execution: PASS
conformance/interfaces/sigaction/28-8: execution: PASS
conformance/interfaces/sigaction/22-19: execution: PASS
conformance/interfaces/sigaction/4-18: execution: PASS
conformance/interfaces/sigaction/17-13: execution: PASS
conformance/interfaces/sigaction/17-6: execution: PASS
conformance/interfaces/sigaction/2-23: execution: PASS
conformance/interfaces/sigaction/4-33: execution: PASS
conformance/interfaces/sigaction/12-26: execution: PASS
conformance/interfaces/sigaction/3-11: execution: PASS
conformance/interfaces/sigaction/12-39: execution: PASS
conformance/interfaces/sigaction/4-37: execution: PASS
conformance/interfaces/sigaction/4-100: execution: PASS
conformance/interfaces/sigaction/4-101: execution: PASS
conformance/interfaces/sigaction/4-58: execution: PASS
conformance/interfaces/sigaction/3-21: execution: PASS
conformance/interfaces/sigaction/25-9: execution: PASS
conformance/interfaces/sigaction/19-8: execution: PASS
conformance/interfaces/sigaction/12-25: execution: PASS
conformance/interfaces/sigaction/12-11: execution: PASS
conformance/interfaces/sigaction/4-9: execution: PASS
conformance/interfaces/sigaction/3-7: execution: PASS
conformance/interfaces/sigaction/18-13: execution: PASS
conformance/interfaces/sigaction/19-13: execution: PASS
conformance/interfaces/sigaction/23-6: execution: PASS
conformance/interfaces/sigaction/22-10: execution: PASS
conformance/interfaces/sigaction/23-18: execution: PASS
conformance/interfaces/sigaction/17-2: execution: PASS
conformance/interfaces/sigaction/23-10: execution: PASS
conformance/interfaces/sigaction/4-79: execution: PASS
conformance/interfaces/sigaction/23-26: execution: PASS
conformance/interfaces/sigaction/3-17: execution: PASS
conformance/interfaces/sigaction/4-102: execution: PASS
conformance/interfaces/sigaction/8-17: execution: PASS
conformance/interfaces/sigaction/4-25: execution: PASS
conformance/interfaces/sigaction/18-18: execution: PASS
conformance/interfaces/sigaction/17-1: execution: PASS
conformance/interfaces/sigaction/18-6: execution: PASS
conformance/interfaces/sigaction/8-5: execution: PASS
conformance/interfaces/sigaction/1-15: execution: PASS
conformance/interfaces/sigaction/4-35: execution: PASS
conformance/interfaces/sigaction/4-76: execution: PASS
conformance/interfaces/sigaction/17-18: execution: PASS
conformance/interfaces/sigaction/12-37: execution: PASS
conformance/interfaces/sigaction/4-32: execution: PASS
conformance/interfaces/sigaction/3-18: execution: PASS
conformance/interfaces/sigaction/8-19: execution: PASS
conformance/interfaces/sigaction/22-26: execution: PASS
conformance/interfaces/sigaction/25-19: execution: PASS
conformance/interfaces/sigaction/13-23: execution: PASS
conformance/interfaces/sigaction/12-7: execution: PASS
conformance/interfaces/sigaction/12-28: execution: PASS
conformance/interfaces/sigaction/6-25: execution: PASS
conformance/interfaces/sigaction/4-81: execution: PASS
conformance/interfaces/sigaction/2-15: execution: PASS
conformance/interfaces/sigaction/28-19: execution: PASS
conformance/interfaces/sigaction/13-21: execution: PASS
conformance/interfaces/sigaction/1-4: execution: PASS
conformance/interfaces/sigaction/19-12: execution: PASS
conformance/interfaces/sigaction/2-9: execution: PASS
conformance/interfaces/sigaction/4-98: execution: PASS
conformance/interfaces/sigaction/23-19: execution: PASS
conformance/interfaces/sigaction/12-22: execution: PASS
conformance/interfaces/sigaction/12-51: execution: PASS
conformance/interfaces/sigaction/13-17: execution: PASS
conformance/interfaces/sigaction/12-12: execution: PASS
conformance/interfaces/sigaction/12-27: execution: PASS
conformance/interfaces/sigaction/2-18: execution: PASS
conformance/interfaces/sigaction/4-46: execution: PASS
conformance/interfaces/sigaction/4-104: execution: PASS
conformance/interfaces/sigaction/4-21: execution: PASS
conformance/interfaces/sigaction/13-19: execution: PASS
conformance/interfaces/sigaction/4-84: execution: PASS
conformance/interfaces/sigaction/2-26: execution: PASS
conformance/interfaces/sigaction/13-13: execution: PASS
conformance/interfaces/sigaction/4-3: execution: PASS
conformance/interfaces/sigaction/3-5: execution: PASS
conformance/interfaces/sigaction/22-5: execution: PASS
conformance/interfaces/sigaction/18-2: execution: PASS
conformance/interfaces/sigaction/18-22: execution: PASS
conformance/interfaces/sigaction/17-26: execution: PASS
conformance/interfaces/sigaction/4-61: execution: PASS
conformance/interfaces/sigaction/1-24: execution: PASS
conformance/interfaces/sigaction/13-9: execution: PASS
conformance/interfaces/sigaction/19-15: execution: PASS
conformance/interfaces/sigaction/6-5: execution: PASS
conformance/interfaces/sigaction/4-91: execution: PASS
conformance/interfaces/sigaction/19-17: execution: PASS
conformance/interfaces/sigaction/4-22: execution: PASS
conformance/interfaces/sigaction/28-4: execution: PASS
conformance/interfaces/sigaction/4-88: execution: PASS
conformance/interfaces/sigaction/12-3: execution: PASS
conformance/interfaces/sigaction/19-18: execution: PASS
conformance/interfaces/sigaction/25-10: execution: PASS
conformance/interfaces/sigaction/3-19: execution: PASS
conformance/interfaces/sigaction/23-15: execution: PASS
conformance/interfaces/sigaction/8-25: execution: PASS
conformance/interfaces/sigaction/25-21: execution: PASS
conformance/interfaces/sigaction/4-39: execution: PASS
conformance/interfaces/sigaction/25-13: execution: PASS
conformance/interfaces/sigaction/16-1: execution: PASS
conformance/interfaces/sigaction/13-18: execution: PASS
conformance/interfaces/sigaction/6-8: execution: PASS
conformance/interfaces/sigaction/23-16: execution: PASS
conformance/interfaces/sigaction/18-25: execution: PASS
conformance/interfaces/sigaction/4-70: execution: PASS
conformance/interfaces/sigaction/4-78: execution: PASS
conformance/interfaces/sigaction/4-30: execution: PASS
conformance/interfaces/sigaction/19-19: execution: PASS
conformance/interfaces/sigaction/8-16: execution: PASS
conformance/interfaces/sigaction/8-26: execution: PASS
conformance/interfaces/sigaction/13-2: execution: PASS
conformance/interfaces/sigaction/1-11: execution: PASS
conformance/interfaces/sigaction/12-1: execution: PASS
conformance/interfaces/sigaction/6-10: execution: PASS
conformance/interfaces/sigaction/13-5: execution: PASS
conformance/interfaces/sigaction/12-9: execution: PASS
conformance/interfaces/sigaction/1-10: execution: PASS
conformance/interfaces/sigaction/12-29: execution: PASS
conformance/interfaces/sigaction/18-17: execution: PASS
conformance/interfaces/sigaction/2-19: execution: PASS
conformance/interfaces/sigaction/6-26: execution: PASS
conformance/interfaces/sigaction/23-17: execution: PASS
conformance/interfaces/sigaction/17-7: execution: PASS
conformance/interfaces/sigaction/1-16: execution: PASS
conformance/interfaces/sigaction/17-5: execution: PASS
conformance/interfaces/sigaction/22-12: execution: PASS
conformance/interfaces/sigaction/17-8: execution: PASS
conformance/interfaces/sigaction/4-60: execution: PASS
conformance/interfaces/sigaction/6-12: execution: PASS
conformance/interfaces/sigaction/23-20: execution: PASS
conformance/interfaces/sigaction/13-25: execution: PASS
conformance/interfaces/sigaction/2-20: execution: PASS
conformance/interfaces/sigaction/28-15: execution: PASS
conformance/interfaces/sigaction/8-8: execution: PASS
conformance/interfaces/sigaction/17-25: execution: PASS
conformance/interfaces/sigaction/13-11: execution: PASS
conformance/interfaces/sigaction/18-14: execution: PASS
conformance/interfaces/sigaction/17-14: execution: PASS
conformance/interfaces/sigaction/2-13: execution: PASS
conformance/interfaces/sigaction/18-9: execution: PASS
conformance/interfaces/sigaction/4-47: execution: PASS
conformance/interfaces/sigaction/1-21: execution: PASS
conformance/interfaces/sigaction/2-25: execution: PASS
conformance/interfaces/sigaction/6-6: execution: PASS
conformance/interfaces/sigaction/4-66: execution: PASS
conformance/interfaces/sigaction/4-41: execution: PASS
conformance/interfaces/sigaction/28-18: execution: PASS
conformance/interfaces/sigaction/25-24: execution: PASS
conformance/interfaces/sigaction/4-49: execution: PASS
conformance/interfaces/sigaction/2-10: execution: PASS
conformance/interfaces/sigaction/12-13: execution: PASS
conformance/interfaces/sigaction/22-9: execution: PASS
conformance/interfaces/sigaction/23-7: execution: PASS
conformance/interfaces/sigaction/2-12: execution: PASS
conformance/interfaces/sigaction/19-26: execution: PASS
conformance/interfaces/sigaction/12-20: execution: PASS
conformance/interfaces/sigaction/17-11: execution: PASS
conformance/interfaces/sigaction/22-17: execution: PASS
conformance/interfaces/sigaction/2-16: execution: PASS
conformance/interfaces/sigaction/23-12: execution: PASS
conformance/interfaces/sigaction/4-86: execution: PASS
conformance/interfaces/sigaction/6-19: execution: PASS
conformance/interfaces/sigaction/23-25: execution: PASS
conformance/interfaces/sigaction/25-4: execution: PASS
conformance/interfaces/sigaction/13-26: execution: PASS
conformance/interfaces/sigaction/19-21: execution: PASS
conformance/interfaces/sigaction/4-27: execution: PASS
conformance/interfaces/sigaction/4-59: execution: PASS
conformance/interfaces/sigaction/4-103: execution: PASS
conformance/interfaces/sigaction/4-48: execution: PASS
conformance/interfaces/sigaction/1-17: execution: PASS
conformance/interfaces/sigaction/12-18: execution: PASS
conformance/interfaces/sigaction/18-26: execution: PASS
conformance/interfaces/sigaction/12-49: execution: PASS
conformance/interfaces/sigaction/12-2: execution: PASS
conformance/interfaces/sigaction/23-8: execution: PASS
conformance/interfaces/sigaction/6-1: execution: PASS
conformance/interfaces/sigaction/22-23: execution: PASS
conformance/interfaces/sigaction/28-12: execution: PASS
conformance/interfaces/sigaction/4-24: execution: PASS
conformance/interfaces/sigaction/19-22: execution: PASS
conformance/interfaces/sigaction/12-48: execution: PASS
conformance/interfaces/sigaction/18-10: execution: PASS
conformance/interfaces/sigaction/2-7: execution: PASS
conformance/interfaces/sigaction/22-1: execution: PASS
conformance/interfaces/sigaction/8-22: execution: PASS
conformance/interfaces/sigaction/25-5: execution: PASS
conformance/interfaces/sigaction/17-3: execution: PASS
conformance/interfaces/sigaction/4-65: execution: PASS
conformance/interfaces/sigaction/28-23: execution: PASS
conformance/interfaces/sigaction/2-4: execution: PASS
conformance/interfaces/sigaction/28-9: execution: PASS
conformance/interfaces/sigaction/4-15: execution: PASS
conformance/interfaces/sigaction/23-21: execution: PASS
conformance/interfaces/sigaction/4-40: execution: PASS
conformance/interfaces/sigaction/13-15: execution: PASS
conformance/interfaces/sigaction/4-82: execution: PASS
conformance/interfaces/sigaction/2-3: execution: PASS
conformance/interfaces/sigaction/12-41: execution: PASS
conformance/interfaces/sigaction/1-9: execution: PASS
conformance/interfaces/sigaction/2-22: execution: PASS
conformance/interfaces/sigaction/3-1: execution: PASS
conformance/interfaces/sigaction/6-14: execution: PASS
conformance/interfaces/sigaction/28-14: execution: PASS
conformance/interfaces/sigaction/12-46: execution: PASS
conformance/interfaces/sigaction/3-26: execution: PASS
conformance/interfaces/sigaction/4-64: execution: PASS
conformance/interfaces/sigaction/19-9: execution: PASS
conformance/interfaces/sigaction/4-50: execution: PASS
conformance/interfaces/sigaction/4-94: execution: PASS
conformance/interfaces/sigaction/2-1: execution: PASS
conformance/interfaces/sigaction/4-2: execution: PASS
conformance/interfaces/sigaction/10-1: execution: PASS
conformance/interfaces/sigaction/4-97: execution: PASS
conformance/interfaces/sigaction/13-6: execution: PASS
conformance/interfaces/sigaction/4-83: execution: PASS
conformance/interfaces/sigaction/13-7: execution: PASS
conformance/interfaces/sigaddset/1-3: execution: PASS
conformance/interfaces/sigaddset/2-1: execution: PASS
conformance/interfaces/sigaltstack/7-1: execution: PASS
conformance/interfaces/sigaltstack/8-1: execution: PASS
conformance/interfaces/sigaltstack/1-1: execution: PASS
conformance/interfaces/sigaltstack/11-1: execution: PASS
conformance/interfaces/sigaltstack/5-1: execution: PASS
conformance/interfaces/sigaltstack/9-1: execution: PASS
conformance/interfaces/sigaltstack/12-1: execution: PASS
conformance/interfaces/sigaltstack/6-1: execution: PASS
conformance/interfaces/sigaltstack/3-1: execution: PASS
conformance/interfaces/sigaltstack/2-1: execution: PASS
conformance/interfaces/sigaltstack/10-1: execution: PASS
conformance/interfaces/sigdelset/1-3: execution: PASS
conformance/interfaces/sigdelset/1-4: execution: PASS
conformance/interfaces/sigdelset/2-1: execution: PASS
conformance/interfaces/sigemptyset/1-1: execution: PASS
conformance/interfaces/sigemptyset/2-1: execution: PASS
conformance/interfaces/sigfillset/1-1: execution: PASS
conformance/interfaces/sigfillset/2-1: execution: PASS
conformance/interfaces/sighold/1-1: execution: PASS
conformance/interfaces/sighold/2-1: execution: PASS
conformance/interfaces/sigignore/6-2: execution: PASS
conformance/interfaces/sigignore/1-1: execution: PASS
conformance/interfaces/sigignore/4-1: execution: PASS
conformance/interfaces/sigignore/6-1: execution: PASS
conformance/interfaces/sigismember/4-1: execution: PASS
conformance/interfaces/sigismember/3-1: execution: PASS
conformance/interfaces/signal/7-1: execution: PASS
conformance/interfaces/signal/1-1: execution: PASS
conformance/interfaces/signal/5-1: execution: PASS
conformance/interfaces/signal/6-1: execution: PASS
conformance/interfaces/signal/3-1: execution: PASS
conformance/interfaces/signal/2-1: execution: PASS
conformance/interfaces/sigpause/1-1: execution: PASS
conformance/interfaces/sigpause/1-2: execution: PASS
conformance/interfaces/sigpause/4-1: execution: PASS
conformance/interfaces/sigpause/3-1: execution: PASS
conformance/interfaces/sigpause/2-1: execution: PASS
conformance/interfaces/sigpending/1-3: execution: PASS
conformance/interfaces/sigpending/1-1: execution: PASS
conformance/interfaces/sigpending/1-2: execution: PASS
conformance/interfaces/sigpending/2-1: execution: PASS
conformance/interfaces/sigprocmask/8-3: execution: PASS
conformance/interfaces/sigprocmask/7-1: execution: PASS
conformance/interfaces/sigprocmask/8-2: execution: PASS
conformance/interfaces/sigprocmask/8-1: execution: PASS
conformance/interfaces/sigprocmask/4-1: execution: PASS
conformance/interfaces/sigprocmask/5-1: execution: PASS
conformance/interfaces/sigprocmask/15-1: execution: PASS
conformance/interfaces/sigprocmask/9-1: execution: PASS
conformance/interfaces/sigprocmask/12-1: execution: PASS
conformance/interfaces/sigprocmask/6-1: execution: PASS
conformance/interfaces/sigprocmask/10-1: execution: PASS
conformance/interfaces/sigqueue/7-1: execution: PASS
conformance/interfaces/sigqueue/8-1: execution: PASS
conformance/interfaces/sigqueue/1-1: execution: PASS
conformance/interfaces/sigqueue/2-2: execution: PASS
conformance/interfaces/sigqueue/4-1: execution: PASS
conformance/interfaces/sigqueue/11-1: execution: PASS
conformance/interfaces/sigqueue/5-1: execution: PASS
conformance/interfaces/sigqueue/9-1: execution: PASS
conformance/interfaces/sigqueue/12-1: execution: PASS
conformance/interfaces/sigqueue/6-1: execution: PASS
conformance/interfaces/sigqueue/3-1: execution: PASS
conformance/interfaces/sigqueue/2-1: execution: PASS
conformance/interfaces/sigqueue/10-1: execution: PASS
conformance/interfaces/sigrelse/1-1: execution: PASS
conformance/interfaces/sigrelse/2-1: execution: PASS
conformance/interfaces/sigset/7-1: execution: PASS
conformance/interfaces/sigset/8-1: execution: PASS
conformance/interfaces/sigset/1-1: execution: PASS
conformance/interfaces/sigset/4-1: execution: PASS
conformance/interfaces/sigset/5-1: execution: PASS
conformance/interfaces/sigset/9-1: execution: PASS
conformance/interfaces/sigset/6-1: execution: PASS
conformance/interfaces/sigset/3-1: execution: PASS
conformance/interfaces/sigset/2-1: execution: PASS
conformance/interfaces/sigset/10-1: execution: PASS
conformance/interfaces/sigsuspend/1-1: execution: PASS
conformance/interfaces/sigsuspend/4-1: execution: PASS
conformance/interfaces/sigsuspend/6-1: execution: PASS
conformance/interfaces/sigsuspend/3-1: execution: PASS
conformance/interfaces/sigtimedwait/1-1: execution: PASS
conformance/interfaces/sigtimedwait/4-1: execution: PASS
conformance/interfaces/sigtimedwait/5-1: execution: PASS
conformance/interfaces/sigtimedwait/6-1: execution: PASS
conformance/interfaces/sigtimedwait/2-1: execution: PASS
conformance/interfaces/sigwait/7-1: execution: PASS
conformance/interfaces/sigwait/6-2: execution: PASS
conformance/interfaces/sigwait/8-1: execution: PASS
conformance/interfaces/sigwait/1-1: execution: PASS
conformance/interfaces/sigwait/4-1: execution: PASS
conformance/interfaces/sigwait/6-1: execution: PASS
conformance/interfaces/sigwait/3-1: execution: PASS
conformance/interfaces/sigwait/2-1: execution: PASS
conformance/interfaces/sigwaitinfo/7-1: execution: PASS
conformance/interfaces/sigwaitinfo/8-1: execution: PASS
conformance/interfaces/sigwaitinfo/1-1: execution: PASS
conformance/interfaces/sigwaitinfo/5-1: execution: PASS
conformance/interfaces/sigwaitinfo/9-1: execution: PASS
conformance/interfaces/sigwaitinfo/6-1: execution: PASS
conformance/interfaces/sigwaitinfo/3-1: execution: PASS
conformance/interfaces/sigwaitinfo/2-1: execution: PASS
conformance/interfaces/raise/7-1: execution: PASS
conformance/interfaces/raise/1-1: execution: PASS
conformance/interfaces/raise/1-2: execution: PASS
conformance/interfaces/raise/4-1: execution: PASS
conformance/interfaces/raise/10000-1: execution: PASS
conformance/interfaces/raise/6-1: execution: PASS
conformance/interfaces/raise/2-1: execution: PASS
conformance/interfaces/kill/1-1: execution: PASS
conformance/interfaces/kill/1-2: execution: PASS
conformance/interfaces/kill/2-2: execution: PASS
conformance/interfaces/kill/3-1: execution: PASS
conformance/interfaces/kill/2-1: execution: PASS
conformance/interfaces/killpg/8-1: execution: PASS
conformance/interfaces/killpg/1-1: execution: PASS
conformance/interfaces/killpg/1-2: execution: PASS
conformance/interfaces/killpg/4-1: execution: PASS
conformance/interfaces/killpg/5-1: execution: PASS
conformance/interfaces/killpg/6-1: execution: PASS
conformance/interfaces/killpg/2-1: execution: PASS
conformance/interfaces/pthread_kill/7-1: execution: PASS
conformance/interfaces/pthread_kill/8-1: execution: PASS
conformance/interfaces/pthread_kill/1-1: execution: PASS
conformance/interfaces/pthread_kill/1-2: execution: PASS
conformance/interfaces/pthread_kill/6-1: execution: PASS
conformance/interfaces/pthread_kill/3-1: execution: PASS
conformance/interfaces/pthread_kill/2-1: execution: PASS
conformance/interfaces/pthread_sigmask/8-3: execution: PASS
conformance/interfaces/pthread_sigmask/7-1: execution: PASS
conformance/interfaces/pthread_sigmask/8-2: execution: PASS
conformance/interfaces/pthread_sigmask/8-1: execution: PASS
conformance/interfaces/pthread_sigmask/18-1: execution: PASS
conformance/interfaces/pthread_sigmask/4-1: execution: PASS
conformance/interfaces/pthread_sigmask/5-1: execution: PASS
conformance/interfaces/pthread_sigmask/15-1: execution: PASS
conformance/interfaces/pthread_sigmask/9-1: execution: PASS
conformance/interfaces/pthread_sigmask/16-1: execution: PASS
conformance/interfaces/pthread_sigmask/12-1: execution: PASS
conformance/interfaces/pthread_sigmask/14-1: execution: PASS
conformance/interfaces/pthread_sigmask/6-1: execution: PASS
conformance/interfaces/pthread_sigmask/10-1: execution: PASS
conformance/interfaces/time/1-1: execution: PASS
conformance/interfaces/timer_create/7-1: execution: PASS
conformance/interfaces/timer_create/8-1: execution: PASS
conformance/interfaces/timer_create/1-1: execution: PASS
conformance/interfaces/timer_create/13-1: execution: PASS
conformance/interfaces/timer_create/11-1: execution: PASS
conformance/interfaces/timer_create/9-1: execution: PASS
conformance/interfaces/timer_create/6-1: execution: PASS
conformance/interfaces/timer_create/16-1: execution: PASS
conformance/interfaces/timer_create/4-1: execution: PASS
conformance/interfaces/timer_create/3-1: execution: PASS
conformance/interfaces/timer_create/14-1: execution: PASS
conformance/interfaces/timer_create/10-1: execution: PASS
conformance/interfaces/timer_create/speculative/5-1: execution: PASS
conformance/interfaces/timer_create/speculative/15-1: execution: PASS
conformance/interfaces/timer_create/speculative/2-1: execution: PASS
conformance/interfaces/timer_delete/3-1: execution: PASS
conformance/interfaces/timer_delete/1-1: execution: PASS
conformance/interfaces/timer_delete/1-2: execution: PASS
conformance/interfaces/timer_delete/4-1: execution: PASS
conformance/interfaces/timer_delete/2-1: execution: PASS
conformance/interfaces/timer_delete/speculative/5-2: execution: PASS
conformance/interfaces/timer_delete/speculative/5-1: execution: PASS
conformance/interfaces/timer_getoverrun/1-1: execution: PASS
conformance/interfaces/timer_getoverrun/2-2: execution: PASS
conformance/interfaces/timer_getoverrun/5-1: execution: PASS
conformance/interfaces/timer_getoverrun/4-1: execution: PASS
conformance/interfaces/timer_getoverrun/2-3: execution: PASS
conformance/interfaces/timer_getoverrun/2-1: execution: PASS
conformance/interfaces/timer_getoverrun/speculative/6-3: execution: PASS
conformance/interfaces/timer_getoverrun/speculative/6-2: execution: PASS
conformance/interfaces/timer_getoverrun/speculative/6-1: execution: PASS
conformance/interfaces/timer_gettime/1-3: execution: PASS
conformance/interfaces/timer_gettime/1-1: execution: PASS
conformance/interfaces/timer_gettime/1-2: execution: PASS
conformance/interfaces/timer_gettime/2-2: execution: PASS
conformance/interfaces/timer_gettime/5-1: execution: PASS
conformance/interfaces/timer_gettime/1-4: execution: PASS
conformance/interfaces/timer_gettime/4-1: execution: PASS
conformance/interfaces/timer_gettime/3-1: execution: PASS
conformance/interfaces/timer_gettime/2-1: execution: PASS
conformance/interfaces/timer_gettime/speculative/6-3: execution: PASS
conformance/interfaces/timer_gettime/speculative/6-2: execution: PASS
conformance/interfaces/timer_gettime/speculative/6-1: execution: PASS
conformance/interfaces/timer_settime/8-3: execution: PASS
conformance/interfaces/timer_settime/3-2: execution: PASS
conformance/interfaces/timer_settime/8-2: execution: PASS
conformance/interfaces/timer_settime/13-1: execution: PASS
conformance/interfaces/timer_settime/8-1: execution: PASS
conformance/interfaces/timer_settime/9-2: execution: PASS
conformance/interfaces/timer_settime/5-3: execution: PASS
conformance/interfaces/timer_settime/1-1: execution: PASS
conformance/interfaces/timer_settime/1-2: execution: PASS
conformance/interfaces/timer_settime/3-3: execution: PASS
conformance/interfaces/timer_settime/5-1: execution: PASS
conformance/interfaces/timer_settime/8-4: execution: PASS
conformance/interfaces/timer_settime/9-1: execution: PASS
conformance/interfaces/timer_settime/10-1: execution: PASS
conformance/interfaces/timer_settime/6-1: execution: PASS
conformance/interfaces/timer_settime/4-1: execution: PASS
conformance/interfaces/timer_settime/3-1: execution: PASS
conformance/interfaces/timer_settime/2-1: execution: PASS
conformance/interfaces/timer_settime/11-1: execution: PASS
conformance/interfaces/timer_settime/speculative/12-3: execution: PASS
conformance/interfaces/timer_settime/speculative/12-1: execution: PASS
conformance/interfaces/timer_settime/speculative/12-2: execution: PASS
conformance/interfaces/asctime/1-1: execution: PASS
conformance/interfaces/clock_gettime/7-1: execution: PASS
conformance/interfaces/clock_gettime/8-2: execution: PASS
conformance/interfaces/clock_gettime/8-1: execution: PASS
conformance/interfaces/clock_gettime/1-1: execution: PASS
conformance/interfaces/clock_gettime/1-2: execution: PASS
conformance/interfaces/clock_gettime/4-1: execution: PASS
conformance/interfaces/clock_gettime/6-1: execution: PASS
conformance/interfaces/clock_gettime/3-1: execution: PASS
conformance/interfaces/clock_gettime/2-1: execution: PASS
conformance/interfaces/clock_settime/20-1: execution: PASS
conformance/interfaces/clock_settime/7-1: execution: PASS
conformance/interfaces/clock_settime/19-1: execution: PASS
conformance/interfaces/clock_settime/5-2: execution: PASS
conformance/interfaces/clock_settime/7-2: execution: PASS
conformance/interfaces/clock_settime/8-1: execution: PASS
conformance/interfaces/clock_settime/3-1: execution: PASS
conformance/interfaces/clock_settime/1-1: execution: PASS
conformance/interfaces/clock_settime/4-1: execution: PASS
conformance/interfaces/clock_settime/5-1: execution: PASS
conformance/interfaces/clock_settime/16-1: execution: PASS
conformance/interfaces/clock_settime/15-1: execution: PASS
conformance/interfaces/clock_settime/17-2: execution: PASS
conformance/interfaces/clock_settime/17-1: execution: PASS
conformance/interfaces/clock_settime/18-1: execution: PASS
conformance/interfaces/clock_settime/6-1: execution: PASS
conformance/interfaces/clock_settime/4-2: execution: PASS
conformance/interfaces/clock_settime/speculative/4-4: execution: PASS
conformance/interfaces/clock_settime/speculative/4-3: execution: PASS
conformance/interfaces/ctime/1-1: execution: PASS
conformance/interfaces/difftime/1-1: execution: PASS
conformance/interfaces/difftime/2-1: execution: PASS
conformance/interfaces/gmtime/1-1: execution: PASS
conformance/interfaces/gmtime/2-1: execution: PASS
conformance/interfaces/localtime/1-1: execution: PASS
conformance/interfaces/mktime/1-1: execution: PASS
conformance/interfaces/strftime/1-1: execution: PASS
conformance/interfaces/strftime/3-1: execution: PASS
conformance/interfaces/strftime/2-1: execution: PASS
conformance/interfaces/time/1-1: execution: PASS
conformance/interfaces/timer_gettime/1-3: execution: PASS
conformance/interfaces/timer_gettime/1-1: execution: PASS
conformance/interfaces/timer_gettime/1-2: execution: PASS
conformance/interfaces/timer_gettime/2-2: execution: PASS
conformance/interfaces/timer_gettime/5-1: execution: PASS
conformance/interfaces/timer_gettime/1-4: execution: PASS
conformance/interfaces/timer_gettime/4-1: execution: PASS
conformance/interfaces/timer_gettime/3-1: execution: PASS
conformance/interfaces/timer_gettime/2-1: execution: PASS
conformance/interfaces/timer_gettime/speculative/6-3: execution: PASS
conformance/interfaces/timer_gettime/speculative/6-2: execution: PASS
conformance/interfaces/timer_gettime/speculative/6-1: execution: PASS
conformance/interfaces/timer_settime/8-3: execution: PASS
conformance/interfaces/timer_settime/3-2: execution: PASS
conformance/interfaces/timer_settime/8-2: execution: PASS
conformance/interfaces/timer_settime/13-1: execution: PASS
conformance/interfaces/timer_settime/8-1: execution: PASS
conformance/interfaces/timer_settime/9-2: execution: PASS
conformance/interfaces/timer_settime/5-3: execution: PASS
conformance/interfaces/timer_settime/1-1: execution: PASS
conformance/interfaces/timer_settime/1-2: execution: PASS
conformance/interfaces/timer_settime/3-3: execution: PASS
conformance/interfaces/timer_settime/5-1: execution: PASS
conformance/interfaces/timer_settime/8-4: execution: PASS
conformance/interfaces/timer_settime/9-1: execution: PASS
conformance/interfaces/timer_settime/10-1: execution: PASS
conformance/interfaces/timer_settime/6-1: execution: PASS
conformance/interfaces/timer_settime/4-1: execution: PASS
conformance/interfaces/timer_settime/3-1: execution: PASS
conformance/interfaces/timer_settime/2-1: execution: PASS
conformance/interfaces/timer_settime/11-1: execution: PASS
conformance/interfaces/timer_settime/speculative/12-3: execution: PASS
conformance/interfaces/timer_settime/speculative/12-1: execution: PASS
conformance/interfaces/timer_settime/speculative/12-2: execution: PASS
conformance/interfaces/clock/1-1: execution: PASS
conformance/interfaces/clock/4-1: execution: PASS
conformance/interfaces/clock/2-1: execution: PASS
conformance/interfaces/clock_getcpuclockid/1-1: execution: PASS
conformance/interfaces/clock_getcpuclockid/1-2: execution: PASS
conformance/interfaces/clock_getcpuclockid/6-1: execution: PASS
conformance/interfaces/clock_getcpuclockid/2-1: execution: PASS
conformance/interfaces/clock_getres/7-1: execution: PASS
conformance/interfaces/clock_getres/6-2: execution: PASS
conformance/interfaces/clock_getres/8-1: execution: PASS
conformance/interfaces/clock_getres/1-1: execution: PASS
conformance/interfaces/clock_getres/5-1: execution: PASS
conformance/interfaces/clock_getres/6-1: execution: PASS
conformance/interfaces/clock_getres/4-1: execution: PASS
conformance/interfaces/clock_getres/2-1: execution: PASS
conformance/interfaces/clock_getres/3-1: execution: PASS
conformance/interfaces/clock_gettime/7-1: execution: PASS
conformance/interfaces/clock_gettime/8-2: execution: PASS
conformance/interfaces/clock_gettime/8-1: execution: PASS
conformance/interfaces/clock_gettime/1-1: execution: PASS
conformance/interfaces/clock_gettime/1-2: execution: PASS
conformance/interfaces/clock_gettime/4-1: execution: PASS
conformance/interfaces/clock_gettime/6-1: execution: PASS
conformance/interfaces/clock_gettime/3-1: execution: PASS
conformance/interfaces/clock_gettime/2-1: execution: PASS
conformance/interfaces/clock_nanosleep/1-2: execution: PASS
conformance/interfaces/clock_nanosleep/1-3: execution: PASS
conformance/interfaces/clock_nanosleep/13-1: execution: PASS
conformance/interfaces/clock_nanosleep/1-5: execution: PASS
conformance/interfaces/clock_nanosleep/8-1: execution: PASS
conformance/interfaces/clock_nanosleep/1-1: execution: PASS
conformance/interfaces/clock_nanosleep/2-2: execution: PASS
conformance/interfaces/clock_nanosleep/11-1: execution: PASS
conformance/interfaces/clock_nanosleep/5-1: execution: PASS
conformance/interfaces/clock_nanosleep/9-1: execution: PASS
conformance/interfaces/clock_nanosleep/15-1: execution: PASS
conformance/interfaces/clock_nanosleep/6-1: execution: PASS
conformance/interfaces/clock_nanosleep/1-4: execution: PASS
conformance/interfaces/clock_nanosleep/4-1: execution: PASS
conformance/interfaces/clock_nanosleep/2-3: execution: PASS
conformance/interfaces/clock_nanosleep/3-1: execution: PASS
conformance/interfaces/clock_nanosleep/2-1: execution: PASS
conformance/interfaces/clock_nanosleep/10-1: execution: PASS
conformance/interfaces/clock_settime/20-1: execution: PASS
conformance/interfaces/clock_settime/7-1: execution: PASS
conformance/interfaces/clock_settime/19-1: execution: PASS
conformance/interfaces/clock_settime/5-2: execution: PASS
conformance/interfaces/clock_settime/7-2: execution: PASS
conformance/interfaces/clock_settime/8-1: execution: PASS
conformance/interfaces/clock_settime/3-1: execution: PASS
conformance/interfaces/clock_settime/1-1: execution: PASS
conformance/interfaces/clock_settime/4-1: execution: PASS
conformance/interfaces/clock_settime/5-1: execution: PASS
conformance/interfaces/clock_settime/16-1: execution: PASS
conformance/interfaces/clock_settime/15-1: execution: PASS
conformance/interfaces/clock_settime/17-2: execution: PASS
conformance/interfaces/clock_settime/17-1: execution: PASS
conformance/interfaces/clock_settime/18-1: execution: PASS
conformance/interfaces/clock_settime/6-1: execution: PASS
conformance/interfaces/clock_settime/4-2: execution: PASS
conformance/interfaces/clock_settime/speculative/4-4: execution: PASS
conformance/interfaces/clock_settime/speculative/4-3: execution: PASS
conformance/interfaces/nanosleep/1-3: execution: PASS
conformance/interfaces/nanosleep/7-1: execution: PASS
conformance/interfaces/nanosleep/5-2: execution: PASS
conformance/interfaces/nanosleep/3-2: execution: PASS
conformance/interfaces/nanosleep/7-2: execution: PASS
conformance/interfaces/nanosleep/1-1: execution: PASS
conformance/interfaces/nanosleep/1-2: execution: PASS
conformance/interfaces/nanosleep/5-1: execution: PASS
conformance/interfaces/nanosleep/10000-1: execution: PASS
conformance/interfaces/nanosleep/6-1: execution: PASS
conformance/interfaces/nanosleep/4-1: execution: PASS
conformance/interfaces/nanosleep/3-1: execution: PASS
conformance/interfaces/nanosleep/2-1: execution: PASS
conformance/interfaces/pthread_attr_getinheritsched/1-1: execution: PASS
conformance/interfaces/pthread_attr_getinheritsched/2-1: execution: PASS
conformance/interfaces/pthread_attr_getschedparam/1-1: execution: PASS
conformance/interfaces/pthread_attr_getschedparam/2-1: execution: PASS
conformance/interfaces/pthread_attr_getschedpolicy/3-1: execution: PASS
conformance/interfaces/pthread_attr_getschedpolicy/1-1: execution: PASS
conformance/interfaces/pthread_attr_getschedpolicy/2-1: execution: PASS
conformance/interfaces/pthread_attr_setinheritsched/3-1: execution: PASS
conformance/interfaces/pthread_attr_setinheritsched/1-1: execution: PASS
conformance/interfaces/pthread_attr_setinheritsched/2-2: execution: PASS
conformance/interfaces/pthread_attr_setinheritsched/4-1: execution: PASS
conformance/interfaces/pthread_attr_setinheritsched/2-4: execution: PASS
conformance/interfaces/pthread_attr_setinheritsched/2-3: execution: PASS
conformance/interfaces/pthread_attr_setinheritsched/2-1: execution: PASS
conformance/interfaces/pthread_attr_setschedparam/1-3: execution: PASS
conformance/interfaces/pthread_attr_setschedparam/1-1: execution: PASS
conformance/interfaces/pthread_attr_setschedparam/1-2: execution: PASS
conformance/interfaces/pthread_attr_setschedparam/1-4: execution: PASS
conformance/interfaces/pthread_attr_setschedparam/2-1: execution: PASS
conformance/interfaces/pthread_attr_setschedparam/speculative/3-2: execution: PASS
conformance/interfaces/pthread_attr_setschedparam/speculative/3-1: execution: PASS
conformance/interfaces/pthread_attr_setschedpolicy/1-3: execution: PASS
conformance/interfaces/pthread_attr_setschedpolicy/3-1: execution: PASS
conformance/interfaces/pthread_attr_setschedpolicy/1-1: execution: PASS
conformance/interfaces/pthread_attr_setschedpolicy/1-2: execution: PASS
conformance/interfaces/pthread_attr_setschedpolicy/4-1: execution: PASS
conformance/interfaces/pthread_attr_setschedpolicy/5-1: execution: PASS
conformance/interfaces/pthread_attr_setschedpolicy/2-1: execution: PASS
conformance/interfaces/pthread_getschedparam/1-3: execution: PASS
conformance/interfaces/pthread_getschedparam/1-1: execution: PASS
conformance/interfaces/pthread_getschedparam/1-2: execution: PASS
conformance/interfaces/pthread_setschedparam/1-1: execution: PASS
conformance/interfaces/pthread_setschedparam/1-2: execution: PASS
conformance/interfaces/pthread_setschedparam/4-1: execution: PASS
conformance/interfaces/pthread_setschedparam/5-1: execution: PASS
conformance/interfaces/pthread_setschedprio/1-1: execution: PASS
conformance/interfaces/sched_get_priority_max/3-1: execution: PASS
conformance/interfaces/sched_get_priority_max/1-1: execution: PASS
conformance/interfaces/sched_get_priority_max/1-2: execution: PASS
conformance/interfaces/sched_get_priority_max/1-4: execution: PASS
conformance/interfaces/sched_get_priority_max/2-1: execution: PASS
conformance/interfaces/sched_get_priority_min/3-1: execution: PASS
conformance/interfaces/sched_get_priority_min/1-1: execution: PASS
conformance/interfaces/sched_get_priority_min/1-2: execution: PASS
conformance/interfaces/sched_get_priority_min/1-4: execution: PASS
conformance/interfaces/sched_get_priority_min/2-1: execution: PASS
conformance/interfaces/sched_getparam/1-1: execution: PASS
conformance/interfaces/sched_getparam/4-1: execution: PASS
conformance/interfaces/sched_getparam/5-1: execution: PASS
conformance/interfaces/sched_getparam/3-1: execution: PASS
conformance/interfaces/sched_getparam/2-1: execution: PASS
conformance/interfaces/sched_getparam/speculative/7-1: execution: PASS
conformance/interfaces/sched_getscheduler/1-1: execution: PASS
conformance/interfaces/sched_getscheduler/4-1: execution: PASS
conformance/interfaces/sched_getscheduler/5-1: execution: PASS
conformance/interfaces/sched_getscheduler/6-1: execution: PASS
conformance/interfaces/sched_getscheduler/3-1: execution: PASS
conformance/interfaces/sched_rr_get_interval/1-1: execution: PASS
conformance/interfaces/sched_rr_get_interval/4-1: execution: PASS
conformance/interfaces/sched_rr_get_interval/3-1: execution: PASS
conformance/interfaces/sched_rr_get_interval/2-1: execution: PASS
conformance/interfaces/sched_rr_get_interval/speculative/5-1: execution: PASS
conformance/interfaces/sched_setparam/25-1: execution: PASS
conformance/interfaces/sched_setparam/23-1: execution: PASS
conformance/interfaces/sched_setparam/1-1: execution: PASS
conformance/interfaces/sched_setparam/2-2: execution: PASS
conformance/interfaces/sched_setparam/5-1: execution: PASS
conformance/interfaces/sched_setparam/9-1: execution: PASS
conformance/interfaces/sched_setparam/23-6: execution: PASS
conformance/interfaces/sched_setparam/24-1: execution: PASS
conformance/interfaces/sched_setparam/23-7: execution: PASS
conformance/interfaces/sched_setparam/26-1: execution: PASS
conformance/interfaces/sched_setparam/22-1: execution: PASS
conformance/interfaces/sched_setparam/27-1: execution: PASS
conformance/interfaces/sched_setparam/4-1: execution: PASS
conformance/interfaces/sched_setparam/2-1: execution: PASS
conformance/interfaces/sched_setparam/10-1: execution: PASS
conformance/interfaces/sched_setparam/11-1: execution: PASS
conformance/interfaces/sched_setscheduler/20-1: execution: PASS
conformance/interfaces/sched_setscheduler/19-1: execution: PASS
conformance/interfaces/sched_setscheduler/19-5: execution: PASS
conformance/interfaces/sched_setscheduler/21-1: execution: PASS
conformance/interfaces/sched_setscheduler/3-1: execution: PASS
conformance/interfaces/sched_setscheduler/8-1: execution: PASS
conformance/interfaces/sched_setscheduler/1-1: execution: PASS
conformance/interfaces/sched_setscheduler/4-1: execution: PASS
conformance/interfaces/sched_setscheduler/17-6: execution: PASS
conformance/interfaces/sched_setscheduler/17-1: execution: PASS
conformance/interfaces/sched_setscheduler/16-1: execution: PASS
conformance/interfaces/sched_setscheduler/17-7: execution: PASS
conformance/interfaces/sched_setscheduler/17-5: execution: PASS
conformance/interfaces/sched_setscheduler/18-1: execution: PASS
conformance/interfaces/sched_yield/3-1: execution: PASS
conformance/interfaces/sched_yield/2-1: execution: PASS
